<story path="stories/TC007_DeletingOwnTopicAsUser.story" title="">
<meta>
<property keyword="@" name="TelerikForumTests" value=""/>
</meta>
<narrative keyword="Narrative:">
  <inOrderTo keyword="As a">user</inOrderTo>
  <asA keyword="I want to">create a new topic</asA>
  <iWantTo keyword="So that">I can delete it</iWantTo>
</narrative>
<scenario keyword="Scenario:" title="As a user I want to create a new topic">
<step outcome="successful">Given Element <parameter>threeDotsTopicArea</parameter> is present</step>
<step outcome="successful">When Click <parameter>homepageSchoolTelerikAcademy</parameter> element</step>
<step outcome="successful">And Click <parameter>createTopicButton</parameter> element</step>
<step outcome="successful">And Type <parameter>topicTitleTC7</parameter> in <parameter>createTopicTitleField</parameter> field</step>
<step outcome="successful">And Type <parameter>topicTextTC7</parameter> in <parameter>createTopicTextArea</parameter> field</step>
<step outcome="successful">And Click <parameter>createNewTopicButton</parameter> element</step>
<step outcome="failed" keyword="FAILED">And Element <parameter>threeDotsTopicArea</parameter> is present<failure>org.openqa.selenium.WebDriverException: Failed to decode response from marionette
Build info: version: &apos;3.14.0&apos;, revision: &apos;aacccce0&apos;, time: &apos;2018-08-02T20:19:58.91Z&apos;
System info: host: &apos;DESKTOP-NLBG72Q&apos;, ip: &apos;192.168.1.8&apos;, os.name: &apos;Windows 10&apos;, os.arch: &apos;amd64&apos;, os.version: &apos;10.0&apos;, java.version: &apos;1.8.0_181&apos;
Driver info: org.openqa.selenium.firefox.FirefoxDriver
Capabilities {acceptInsecureCerts: true, browserName: firefox, browserVersion: 69.0.3, javascriptEnabled: true, moz:accessibilityChecks: false, moz:buildID: 20191009172106, moz:geckodriverVersion: 0.26.0, moz:headless: false, moz:processID: 11824, moz:profile: C:\Users\Acerrr\AppData\Loc..., moz:shutdownTimeout: 60000, moz:useNonSpecCompliantPointerOrigin: false, moz:webdriverClick: true, pageLoadStrategy: normal, platform: WINDOWS, platformName: WINDOWS, platformVersion: 10.0, rotatable: false, setWindowRect: true, strictFileInteractability: false, timeouts: {implicit: 0, pageLoad: 300000, script: 30000}, unhandledPromptBehavior: dismiss and notify}
Session ID: 369e37c3-b16b-4f54-a724-c0cf8938b981
*** Element info: {Using=xpath, value=//div[@class=&apos;actions&apos;]/child::button[3]}</failure></step>
<step outcome="notPerformed" keyword="NOT PERFORMED">And Click <parameter>threeDotsTopicArea</parameter> element</step>
<step outcome="notPerformed" keyword="NOT PERFORMED">And Click <parameter>deleteTopicButton</parameter> element</step>
<step outcome="notPerformed" keyword="NOT PERFORMED">And Element <parameter>deletedTopicConfirmationMsg</parameter> is present</step>
<step outcome="notPerformed" keyword="NOT PERFORMED">Then Element <parameter>threeDotsTopicArea</parameter> is present</step>
</scenario>
</story>
